R, Databases, and Docker
…
Q %>% dplyr::as_tibble()

## # A tibble: 16,044 x 3
##    rental_date         staff_email             customer_email              
##    <dttm>              <chr>                   <chr>                       
##  1 2005-05-24 22:54:33 Mike.Hillyer@sakilasta… tommy.collazo@sakilacustome…
##  2 2005-05-24 23:03:39 Mike.Hillyer@sakilasta… manuel.murrell@sakilacustom…
##  3 2005-05-24 23:04:41 Jon.Stephens@sakilasta… andrew.purdy@sakilacustomer…
##  4 2005-05-24 23:05:21 Mike.Hillyer@sakilasta… delores.hansen@sakilacustom…
##  5 2005-05-24 23:08:07 Mike.Hillyer@sakilasta… nelson.christenson@sakilacu…
##  6 2005-05-24 23:11:53 Jon.Stephens@sakilasta… cassandra.walters@sakilacus…
##  7 2005-05-24 23:31:46 Jon.Stephens@sakilasta… minnie.romero@sakilacustome…
##  8 2005-05-25 00:00:40 Mike.Hillyer@sakilasta… ellen.simpson@sakilacustome…
##  9 2005-05-25 00:02:21 Jon.Stephens@sakilasta… danny.isom@sakilacustomer.o…
## 10 2005-05-25 00:09:02 Jon.Stephens@sakilasta… april.burns@sakilacustomer.…
## # … with 16,034 more rows
…
actor_info
4

city
4

inventory
4

How many column names are shared across tables (or duplicated)?

public_tables %>% count(column_name, sort = TRUE) %>% filter(n > 1)

## # A tibble: 36 x 2
##    column_name     n
##    <chr>       <int>
##  1 last_update    15
##  2 address_id      5
##  3 first_name      5
##  4 last_name       5
##  5 store_id        5
##  6 customer_id     4
##  7 film_id         4
##  8 name            4
##  9 active          3
## 10 actor_id        3
## # … with 26 more rows
…
