…
```r
Q %>% dplyr::as_tibble()
```

```
## # A tibble: 1,000 x 4
##    title            length rating category   
##    <chr>             <int> <chr>  <chr>      
##  1 Academy Dinosaur     86 PG     Documentary
##  2 Ace Goldfinger       48 G      Horror     
##  3 Adaptation Holes     50 NC-17  Documentary
##  4 Affair Prejudice    117 G      Horror     
##  5 African Egg         130 G      Family     
##  6 Agent Truman        169 PG     Foreign    
##  7 Airplane Sierra      62 PG-13  Comedy     
##  8 Airport Pollock      54 R      Horror     
##  9 Alabama Devil       114 PG-13  Horror     
## 10 Aladdin Calendar     63 NC-17  Sports     
## # … with 990 more rows
```
…
