…
```
## Warning: Missing values are always removed in SQL.
## Use `SUM(x, na.rm = TRUE)` to silence this warning
## This warning is displayed only once per session.
```

```r
t_salesperson_sales_by_fiscal_years_data
```

```
## # A tibble: 108 x 6
##    businessentityid fullname  jobtitle  sales_territory fiscalyear subtotal
##               <int> <chr>     <chr>     <chr>                <dbl>    <dbl>
##  1              274 Stephen … North Am… Canada                2011    2040.
##  2              274 Stephen … North Am… Canada                2012   62250.
##  3              274 Stephen … North Am… Canada                2013  100556.
##  4              274 Stephen … North Am… Canada                2014   11803.
##  5              274 Stephen … North Am… Central               2014   35332.
##  6              274 Stephen … North Am… Northeast             2012   83216.
##  7              274 Stephen … North Am… Northwest             2011   20545.
##  8              274 Stephen … North Am… Northwest             2012    5810.
##  9              274 Stephen … North Am… Northwest             2013  204390.
## 10              274 Stephen … North Am… Northwest             2014    2321.
## # … with 98 more rows
```
…
