…
It has only retrieved 10 rows but doesn't know how many rows are left to retrieve as it notes `... with more rows`. 
In contrast to `print()`, the `as.tibble()` function causes R to download the whole table, using tibble's default of displaying only the first 10 rows.

```r
Q %>% as.tibble()
```

```
## # A tibble: 16,044 x 3
##    rental_date         staff_email            customer_email              
##    <dttm>              <chr>                  <chr>                       
##  1 2005-05-24 22:54:33 Mike.Hillyer@sakilast… tommy.collazo@sakilacustome…
##  2 2005-05-24 23:03:39 Mike.Hillyer@sakilast… manuel.murrell@sakilacustom…
##  3 2005-05-24 23:04:41 Jon.Stephens@sakilast… andrew.purdy@sakilacustomer…
##  4 2005-05-24 23:05:21 Mike.Hillyer@sakilast… delores.hansen@sakilacustom…
##  5 2005-05-24 23:08:07 Mike.Hillyer@sakilast… nelson.christenson@sakilacu…
##  6 2005-05-24 23:11:53 Jon.Stephens@sakilast… cassandra.walters@sakilacus…
##  7 2005-05-24 23:31:46 Jon.Stephens@sakilast… minnie.romero@sakilacustome…
##  8 2005-05-25 00:00:40 Mike.Hillyer@sakilast… ellen.simpson@sakilacustome…
##  9 2005-05-25 00:02:21 Jon.Stephens@sakilast… danny.isom@sakilacustomer.o…
## 10 2005-05-25 00:09:02 Jon.Stephens@sakilast… april.burns@sakilacustomer.…
## # ... with 16,034 more rows
```
…
