…
How many *column names* are shared across tables (or duplicated)?

```r
public_tables %>% count(column_name, sort = TRUE) %>% filter(n > 1)
```

```
## # A tibble: 434 x 2
##    column_name          n
##    <chr>            <int>
##  1 modifieddate       140
##  2 rowguid             61
##  3 id                  60
##  4 name                59
##  5 businessentityid    49
##  6 productid           32
##  7 schemaname          29
##  8 relid               20
##  9 relname             20
## 10 table_catalog       17
## #  with 424 more rows
```
…
