…
How many column names are shared across tables (or duplicated)?

```r
columns_info_schema_info %>% count(column_name, sort = TRUE) %>% filter(n > 1)
```

```
## # A tibble: 34 x 2
##    column_name     n
##    <chr>       <int>
##  1 last_update    14
##  2 address_id      4
##  3 film_id         4
##  4 first_name      4
##  5 last_name       4
##  6 name            4
##  7 store_id        4
##  8 actor_id        3
##  9 address         3
## 10 category        3
## # ... with 24 more rows
```

How many column names are unique?

```r
columns_info_schema_info %>% count(column_name) %>% filter(n > 1)
```

```
## # A tibble: 34 x 2
##    column_name     n
##    <chr>       <int>
##  1 active          2
##  2 actor_id        3
##  3 actors          2
##  4 address         3
##  5 address_id      4
##  6 category        3
##  7 category_id     2
##  8 city            3
##  9 city_id         2
## 10 country         3
## # ... with 24 more rows
```
…
