Chapter 10 Lazy Evaluation and Execution Environment | R, Databases, and Docker
…
try(rental_table %>% 
  mutate(rental_date = lubridate::date(rental_date))
)

## Error in lubridate::date(rental_date) : object 'rental_date' not found

rental_table %>% collect() %>% 
  mutate(rental_date = lubridate::date(rental_date)) 

## # A tibble: 16,044 x 7
##    rental_id rental_date inventory_id customer_id return_date        
##        <int> <date>             <int>       <int> <dttm>             
##  1         2 2005-05-24          1525         459 2005-05-28 19:40:33
##  2         3 2005-05-24          1711         408 2005-06-01 22:12:39
##  3         4 2005-05-24          2452         333 2005-06-03 01:43:41
##  4         5 2005-05-24          2079         222 2005-06-02 04:33:21
##  5         6 2005-05-24          2792         549 2005-05-27 01:32:07
##  6         7 2005-05-24          3995         269 2005-05-29 20:34:53
##  7         8 2005-05-24          2346         239 2005-05-27 23:33:46
##  8         9 2005-05-25          2580         126 2005-05-28 00:22:40
##  9        10 2005-05-25          1824         399 2005-05-31 22:44:21
## 10        11 2005-05-25          4443         142 2005-06-02 20:56:02
## # … with 16,034 more rows, and 2 more variables: staff_id <int>,
## #   last_update <dttm>
…
try(rental_table %>% collect() %>% 
  mutate(rental_date = lubridate::date(rental_date)))

## # A tibble: 16,044 x 7
##    rental_id rental_date inventory_id customer_id return_date        
##        <int> <date>             <int>       <int> <dttm>             
##  1         2 2005-05-24          1525         459 2005-05-28 19:40:33
##  2         3 2005-05-24          1711         408 2005-06-01 22:12:39
##  3         4 2005-05-24          2452         333 2005-06-03 01:43:41
##  4         5 2005-05-24          2079         222 2005-06-02 04:33:21
##  5         6 2005-05-24          2792         549 2005-05-27 01:32:07
##  6         7 2005-05-24          3995         269 2005-05-29 20:34:53
##  7         8 2005-05-24          2346         239 2005-05-27 23:33:46
##  8         9 2005-05-25          2580         126 2005-05-28 00:22:40
##  9        10 2005-05-25          1824         399 2005-05-31 22:44:21
## 10        11 2005-05-25          4443         142 2005-06-02 20:56:02
## # … with 16,034 more rows, and 2 more variables: staff_id <int>,
## #   last_update <dttm>
…
