Chapter 10 Lazy Evaluation and Lazy Queries | R, Databases and Docker
…
Q %>% as.tibble()

## Warning: `as.tibble()` is deprecated, use `as_tibble()` (but mind the new semantics).
## This warning is displayed once per session.

## # A tibble: 16,044 x 3
##    rental_date         staff_email             customer_email              
##    <dttm>              <chr>                   <chr>                       
##  1 2005-05-24 22:54:33 Mike.Hillyer@sakilasta… tommy.collazo@sakilacustome…
##  2 2005-05-24 23:03:39 Mike.Hillyer@sakilasta… manuel.murrell@sakilacustom…
##  3 2005-05-24 23:04:41 Jon.Stephens@sakilasta… andrew.purdy@sakilacustomer…
##  4 2005-05-24 23:05:21 Mike.Hillyer@sakilasta… delores.hansen@sakilacustom…
##  5 2005-05-24 23:08:07 Mike.Hillyer@sakilasta… nelson.christenson@sakilacu…
##  6 2005-05-24 23:11:53 Jon.Stephens@sakilasta… cassandra.walters@sakilacus…
##  7 2005-05-24 23:31:46 Jon.Stephens@sakilasta… minnie.romero@sakilacustome…
##  8 2005-05-25 00:00:40 Mike.Hillyer@sakilasta… ellen.simpson@sakilacustome…
##  9 2005-05-25 00:02:21 Jon.Stephens@sakilasta… danny.isom@sakilacustomer.o…
## 10 2005-05-25 00:09:02 Jon.Stephens@sakilasta… april.burns@sakilacustomer.…
## # … with 16,034 more rows
…
