Chapter 8 Introduction to DBMS queries | r-database-docker.utf8
…
skimr::skim_to_wide(salesorderheader_tibble) #skimr doesn't like certain kinds of columns

## # A tibble: 25 x 19
##    type  variable missing complete n     min   max   empty n_unique mean 
##    <chr> <chr>    <chr>   <chr>    <chr> <chr> <chr> <chr> <chr>    <chr>
##  1 char… account… 0       31465    31465 14    14    0     19119    <NA> 
##  2 char… comment  31465   0        31465 NA    NA    0     0        <NA> 
##  3 char… creditc… 1131    30334    31465 9     15    0     30334    <NA> 
##  4 char… purchas… 27659   3806     31465 10    13    0     3806     <NA> 
##  5 char… rowguid  0       31465    31465 36    36    0     31465    <NA> 
##  6 inte… billtoa… 0       31465    31465 <NA>  <NA>  <NA>  <NA>     1826…
##  7 inte… creditc… 1131    30334    31465 <NA>  <NA>  <NA>  <NA>     " 96…
##  8 inte… currenc… 17489   13976    31465 <NA>  <NA>  <NA>  <NA>     " 91…
##  9 inte… custome… 0       31465    31465 <NA>  <NA>  <NA>  <NA>     2017…
## 10 inte… revisio… 0       31465    31465 <NA>  <NA>  <NA>  <NA>     "   …
## # … with 15 more rows, and 9 more variables: sd <chr>, p0 <chr>,
## #   p25 <chr>, p50 <chr>, p75 <chr>, p100 <chr>, hist <chr>, count <chr>,
## #   median <chr>
…
