Chapter 12 Leveraging Database Views | Exploring Enterprise Databases with R: A Tidyverse Approach
…
## <SQL>
## SELECT "year", "quarter", "month", SUM("subtotal") AS "subtotal", COUNT(*) AS "n"
## FROM (SELECT "salesorderid", "revisionnumber", "orderdate", "duedate", "shipdate", "status", "onlineorderflag", "purchaseordernumber", "accountnumber", "customerid", "salespersonid", "territoryid", "billtoaddressid", "shiptoaddressid", "shipmethodid", "creditcardid", "creditcardapprovalcode", "currencyrateid", "subtotal", "taxamt", "freight", "totaldue", "comment", "rowguid", "modifieddate", EXTRACT(year FROM "orderdate") AS "year", EXTRACT(MONTH FROM "orderdate") AS "month", DATE_PART('quarter', orderdate) AS "quarter"
## FROM (SELECT "salesorderid", "revisionnumber", CAST("orderdate" AS DATE) AS "orderdate", "duedate", "shipdate", "status", "onlineorderflag", "purchaseordernumber", "accountnumber", "customerid", "salespersonid", "territoryid", "billtoaddressid", "shiptoaddressid", "shipmethodid", "creditcardid", "creditcardapprovalcode", "currencyrateid", "subtotal", "taxamt", "freight", "totaldue", "comment", "rowguid", "modifieddate"
## FROM sales.salesorderheader) "dbplyr_013") "dbplyr_014"
## GROUP BY "year", "quarter", "month"
## ORDER BY "year", "quarter", "month"

by_q_correct_date

## # A tibble: 38 x 5
##     year quarter month subtotal     n
##    <dbl>   <dbl> <dbl>    <dbl> <int>
##  1  2011       2     5  503806.    43
##  2  2011       2     6  458911.   141
##  3  2011       3     7 2044600.   231
##  4  2011       3     8 2495817.   250
##  5  2011       3     9  502074.   157
##  6  2011       4    10 4588762.   327
##  7  2011       4    11  737840.   230
##  8  2011       4    12 1309863.   228
##  9  2012       1     1 3970627.   336
## 10  2012       1     2 1475427.   219
## # … with 28 more rows

by_q_raw_date

## # A tibble: 38 x 5
##     year quarter month subtotal     n
##    <dbl>   <dbl> <dbl>    <dbl> <int>
##  1  2011       2     5  503806.    43
##  2  2011       2     6  458911.   141
##  3  2011       3     7 2044600.   231
##  4  2011       3     8 2495817.   250
##  5  2011       3     9  502074.   157
##  6  2011       4    10 4588762.   327
##  7  2011       4    11  737840.   230
##  8  2011       4    12 1309863.   228
##  9  2012       1     1 3970627.   336
## 10  2012       1     2 1475427.   219
## # … with 28 more rows
…
