R, Databases and Docker
…
actor_info
4

city
4

inventory
4

How many column names are shared across tables (or duplicated)?

public_tables %>% count(column_name, sort = TRUE) %>% filter(n > 1)

## # A tibble: 40 x 2
##    column_name     n
##    <chr>       <int>
##  1 last_update    15
##  2 film_id         5
##  3 address_id      4
##  4 description     4
##  5 first_name      4
##  6 last_name       4
##  7 length          4
##  8 name            4
##  9 rating          4
## 10 store_id        4
## # ... with 30 more rows
…
