R, Databases and Docker
…
## <SQL>
## SELECT COUNT(*) AS "n"
## FROM "rental"

The dplyr::summarise verb does not force R to download the whole table. It processes the whole table by counting all the rows on the dbms side and then downloads one number.

Next we give an example where R gets busy and returns the full data set.

rental_table <- dplyr::tbl(con, "rental") # Lazy

collect_rental_table <- rental_table %>% collect() # Busy
collect_rental_table

## # A tibble: 16,044 x 7
##    rental_id rental_date         inventory_id customer_id
##        <int> <dttm>                     <int>       <int>
##  1         2 2005-05-24 22:54:33         1525         459
##  2         3 2005-05-24 23:03:39         1711         408
##  3         4 2005-05-24 23:04:41         2452         333
##  4         5 2005-05-24 23:05:21         2079         222
##  5         6 2005-05-24 23:08:07         2792         549
##  6         7 2005-05-24 23:11:53         3995         269
##  7         8 2005-05-24 23:31:46         2346         239
##  8         9 2005-05-25 00:00:40         2580         126
##  9        10 2005-05-25 00:02:21         1824         399
## 10        11 2005-05-25 00:09:02         4443         142
## # ... with 16,034 more rows, and 3 more variables: return_date <dttm>,
## #   staff_id <int>, last_update <dttm>
…
